<mxfile host="app.diagrams.net" modified="2023-10-25T16:22:17.045Z" agent="Mozilla/5.0 (Windows NT 10.0; Win64; x64) AppleWebKit/537.36 (KHTML, like Gecko) Chrome/118.0.0.0 Safari/537.36" etag="2JeRphFaD_qgAOS_gPo6" version="22.0.8" type="gitlab">
  <diagram id="R2lEEEUBdFMjLlhIrx00" name="Page-1">
    <mxGraphModel dx="1602" dy="790" grid="1" gridSize="10" guides="1" tooltips="1" connect="1" arrows="1" fold="1" page="1" pageScale="1" pageWidth="850" pageHeight="1100" math="0" shadow="0" extFonts="Permanent Marker^https://fonts.googleapis.com/css?family=Permanent+Marker">
      <root>
        <mxCell id="0" />
        <mxCell id="1" parent="0" />
        <mxCell id="iDiM-2aFiBiZEY-5Da5O-19" value="" style="edgeStyle=orthogonalEdgeStyle;rounded=0;orthogonalLoop=1;jettySize=auto;html=1;" parent="1" source="iDiM-2aFiBiZEY-5Da5O-8" target="iDiM-2aFiBiZEY-5Da5O-17" edge="1">
          <mxGeometry relative="1" as="geometry" />
        </mxCell>
        <mxCell id="iDiM-2aFiBiZEY-5Da5O-8" value="Pengguna" style="rounded=0;whiteSpace=wrap;html=1;" parent="1" vertex="1">
          <mxGeometry x="20" y="90" width="100" height="60" as="geometry" />
        </mxCell>
        <mxCell id="iDiM-2aFiBiZEY-5Da5O-16" value="CUSTOMER&amp;nbsp;&lt;br&gt;SERVICE" style="rounded=0;whiteSpace=wrap;html=1;" parent="1" vertex="1">
          <mxGeometry x="410" y="90" width="100" height="60" as="geometry" />
        </mxCell>
        <mxCell id="iDiM-2aFiBiZEY-5Da5O-18" value="" style="edgeStyle=orthogonalEdgeStyle;rounded=0;orthogonalLoop=1;jettySize=auto;html=1;" parent="1" source="iDiM-2aFiBiZEY-5Da5O-17" target="iDiM-2aFiBiZEY-5Da5O-16" edge="1">
          <mxGeometry relative="1" as="geometry" />
        </mxCell>
        <mxCell id="iDiM-2aFiBiZEY-5Da5O-17" value="*0&lt;br&gt;Proses Pengiriman" style="strokeWidth=2;html=1;shape=mxgraph.flowchart.start_2;whiteSpace=wrap;" parent="1" vertex="1">
          <mxGeometry x="220" y="70" width="100" height="100" as="geometry" />
        </mxCell>
        <mxCell id="iDiM-2aFiBiZEY-5Da5O-20" value="feedback" style="text;strokeColor=none;align=center;fillColor=none;html=1;verticalAlign=middle;whiteSpace=wrap;rounded=0;" parent="1" vertex="1">
          <mxGeometry x="140" y="90" width="60" height="30" as="geometry" />
        </mxCell>
        <mxCell id="iDiM-2aFiBiZEY-5Da5O-21" value="feedback" style="text;strokeColor=none;align=center;fillColor=none;html=1;verticalAlign=middle;whiteSpace=wrap;rounded=0;" parent="1" vertex="1">
          <mxGeometry x="330" y="90" width="60" height="30" as="geometry" />
        </mxCell>
        <mxCell id="iDiM-2aFiBiZEY-5Da5O-23" value="" style="edgeStyle=orthogonalEdgeStyle;rounded=0;orthogonalLoop=1;jettySize=auto;html=1;" parent="1" source="iDiM-2aFiBiZEY-5Da5O-16" edge="1">
          <mxGeometry relative="1" as="geometry">
            <mxPoint x="330" y="130" as="sourcePoint" />
            <mxPoint x="320" y="130" as="targetPoint" />
            <Array as="points">
              <mxPoint x="365" y="130" />
            </Array>
          </mxGeometry>
        </mxCell>
        <mxCell id="iDiM-2aFiBiZEY-5Da5O-24" value="" style="edgeStyle=orthogonalEdgeStyle;rounded=0;orthogonalLoop=1;jettySize=auto;html=1;entryX=1;entryY=0.667;entryDx=0;entryDy=0;entryPerimeter=0;" parent="1" target="iDiM-2aFiBiZEY-5Da5O-8" edge="1">
          <mxGeometry relative="1" as="geometry">
            <mxPoint x="220" y="130" as="sourcePoint" />
            <mxPoint x="130" y="130" as="targetPoint" />
            <Array as="points" />
          </mxGeometry>
        </mxCell>
        <mxCell id="iDiM-2aFiBiZEY-5Da5O-25" value="tanggapan" style="text;strokeColor=none;align=center;fillColor=none;html=1;verticalAlign=middle;whiteSpace=wrap;rounded=0;" parent="1" vertex="1">
          <mxGeometry x="330" y="140" width="60" height="30" as="geometry" />
        </mxCell>
        <mxCell id="iDiM-2aFiBiZEY-5Da5O-27" value="tanggapan" style="text;strokeColor=none;align=center;fillColor=none;html=1;verticalAlign=middle;whiteSpace=wrap;rounded=0;" parent="1" vertex="1">
          <mxGeometry x="140" y="130" width="60" height="30" as="geometry" />
        </mxCell>
        <mxCell id="iDiM-2aFiBiZEY-5Da5O-49" value="" style="edgeStyle=orthogonalEdgeStyle;rounded=0;orthogonalLoop=1;jettySize=auto;html=1;" parent="1" source="iDiM-2aFiBiZEY-5Da5O-50" target="iDiM-2aFiBiZEY-5Da5O-53" edge="1">
          <mxGeometry relative="1" as="geometry" />
        </mxCell>
        <mxCell id="iDiM-2aFiBiZEY-5Da5O-50" value="Pengguna" style="rounded=0;whiteSpace=wrap;html=1;" parent="1" vertex="1">
          <mxGeometry x="30" y="280" width="100" height="60" as="geometry" />
        </mxCell>
        <mxCell id="iDiM-2aFiBiZEY-5Da5O-51" value="CUSTOMER&amp;nbsp;&lt;br&gt;SERVICE" style="rounded=0;whiteSpace=wrap;html=1;" parent="1" vertex="1">
          <mxGeometry x="510" y="720" width="100" height="60" as="geometry" />
        </mxCell>
        <mxCell id="iDiM-2aFiBiZEY-5Da5O-70" value="" style="edgeStyle=orthogonalEdgeStyle;rounded=0;orthogonalLoop=1;jettySize=auto;html=1;" parent="1" source="iDiM-2aFiBiZEY-5Da5O-53" target="iDiM-2aFiBiZEY-5Da5O-68" edge="1">
          <mxGeometry relative="1" as="geometry" />
        </mxCell>
        <mxCell id="iDiM-2aFiBiZEY-5Da5O-72" value="Data Kategori&lt;br&gt;Feedback" style="edgeLabel;html=1;align=center;verticalAlign=middle;resizable=0;points=[];" parent="iDiM-2aFiBiZEY-5Da5O-70" vertex="1" connectable="0">
          <mxGeometry x="-0.1333" relative="1" as="geometry">
            <mxPoint as="offset" />
          </mxGeometry>
        </mxCell>
        <mxCell id="iDiM-2aFiBiZEY-5Da5O-53" value="1p&lt;br&gt;memilih kategori feedback" style="strokeWidth=2;html=1;shape=mxgraph.flowchart.start_2;whiteSpace=wrap;" parent="1" vertex="1">
          <mxGeometry x="230" y="260" width="100" height="100" as="geometry" />
        </mxCell>
        <mxCell id="iDiM-2aFiBiZEY-5Da5O-54" value="feedback" style="text;strokeColor=none;align=center;fillColor=none;html=1;verticalAlign=middle;whiteSpace=wrap;rounded=0;" parent="1" vertex="1">
          <mxGeometry x="150" y="280" width="60" height="30" as="geometry" />
        </mxCell>
        <mxCell id="iDiM-2aFiBiZEY-5Da5O-67" value="" style="edgeStyle=orthogonalEdgeStyle;rounded=0;orthogonalLoop=1;jettySize=auto;html=1;" parent="1" source="iDiM-2aFiBiZEY-5Da5O-62" target="iDiM-2aFiBiZEY-5Da5O-53" edge="1">
          <mxGeometry relative="1" as="geometry" />
        </mxCell>
        <mxCell id="iDiM-2aFiBiZEY-5Da5O-62" value="data kategori&amp;nbsp; feedback" style="shape=partialRectangle;whiteSpace=wrap;html=1;left=0;right=0;fillColor=none;" parent="1" vertex="1">
          <mxGeometry x="425" y="295" width="170" height="30" as="geometry" />
        </mxCell>
        <mxCell id="iDiM-2aFiBiZEY-5Da5O-74" value="" style="edgeStyle=orthogonalEdgeStyle;rounded=0;orthogonalLoop=1;jettySize=auto;html=1;" parent="1" source="iDiM-2aFiBiZEY-5Da5O-68" target="iDiM-2aFiBiZEY-5Da5O-73" edge="1">
          <mxGeometry relative="1" as="geometry" />
        </mxCell>
        <mxCell id="iDiM-2aFiBiZEY-5Da5O-81" value="Feedback" style="edgeLabel;html=1;align=center;verticalAlign=middle;resizable=0;points=[];" parent="iDiM-2aFiBiZEY-5Da5O-74" vertex="1" connectable="0">
          <mxGeometry x="-0.2286" relative="1" as="geometry">
            <mxPoint as="offset" />
          </mxGeometry>
        </mxCell>
        <mxCell id="iDiM-2aFiBiZEY-5Da5O-68" value="2p&lt;br&gt;mengisi form&lt;br style=&quot;border-color: var(--border-color);&quot;&gt;feedback" style="strokeWidth=2;html=1;shape=mxgraph.flowchart.start_2;whiteSpace=wrap;" parent="1" vertex="1">
          <mxGeometry x="230" y="430" width="100" height="100" as="geometry" />
        </mxCell>
        <mxCell id="iDiM-2aFiBiZEY-5Da5O-76" value="" style="edgeStyle=orthogonalEdgeStyle;rounded=0;orthogonalLoop=1;jettySize=auto;html=1;" parent="1" source="iDiM-2aFiBiZEY-5Da5O-73" target="iDiM-2aFiBiZEY-5Da5O-75" edge="1">
          <mxGeometry relative="1" as="geometry" />
        </mxCell>
        <mxCell id="iDiM-2aFiBiZEY-5Da5O-82" value="Data Feedback" style="edgeLabel;html=1;align=center;verticalAlign=middle;resizable=0;points=[];" parent="iDiM-2aFiBiZEY-5Da5O-76" vertex="1" connectable="0">
          <mxGeometry x="0.0556" y="-2" relative="1" as="geometry">
            <mxPoint as="offset" />
          </mxGeometry>
        </mxCell>
        <mxCell id="iDiM-2aFiBiZEY-5Da5O-73" value="data feedback" style="shape=partialRectangle;whiteSpace=wrap;html=1;left=0;right=0;fillColor=none;" parent="1" vertex="1">
          <mxGeometry x="220" y="600" width="120" height="40" as="geometry" />
        </mxCell>
        <mxCell id="iDiM-2aFiBiZEY-5Da5O-77" value="" style="edgeStyle=orthogonalEdgeStyle;rounded=0;orthogonalLoop=1;jettySize=auto;html=1;" parent="1" source="iDiM-2aFiBiZEY-5Da5O-75" target="iDiM-2aFiBiZEY-5Da5O-51" edge="1">
          <mxGeometry relative="1" as="geometry" />
        </mxCell>
        <mxCell id="iDiM-2aFiBiZEY-5Da5O-80" value="Data Feedback" style="edgeLabel;html=1;align=center;verticalAlign=middle;resizable=0;points=[];" parent="iDiM-2aFiBiZEY-5Da5O-77" vertex="1" connectable="0">
          <mxGeometry x="0.0485" y="-3" relative="1" as="geometry">
            <mxPoint as="offset" />
          </mxGeometry>
        </mxCell>
        <mxCell id="iDiM-2aFiBiZEY-5Da5O-75" value="3p&lt;br&gt;laporan data feedback" style="strokeWidth=2;html=1;shape=mxgraph.flowchart.start_2;whiteSpace=wrap;" parent="1" vertex="1">
          <mxGeometry x="230" y="700" width="100" height="100" as="geometry" />
        </mxCell>
        <mxCell id="iDiM-2aFiBiZEY-5Da5O-86" value="" style="edgeStyle=orthogonalEdgeStyle;rounded=0;orthogonalLoop=1;jettySize=auto;html=1;" parent="1" source="iDiM-2aFiBiZEY-5Da5O-51" target="iDiM-2aFiBiZEY-5Da5O-87" edge="1">
          <mxGeometry relative="1" as="geometry">
            <mxPoint x="557.5" y="800" as="sourcePoint" />
            <mxPoint x="400" y="870" as="targetPoint" />
            <Array as="points">
              <mxPoint x="560" y="890" />
            </Array>
          </mxGeometry>
        </mxCell>
        <mxCell id="iDiM-2aFiBiZEY-5Da5O-94" value="tanggapan" style="edgeLabel;html=1;align=center;verticalAlign=middle;resizable=0;points=[];" parent="iDiM-2aFiBiZEY-5Da5O-86" vertex="1" connectable="0">
          <mxGeometry x="0.1549" y="3" relative="1" as="geometry">
            <mxPoint x="1" as="offset" />
          </mxGeometry>
        </mxCell>
        <mxCell id="iDiM-2aFiBiZEY-5Da5O-90" value="" style="edgeStyle=orthogonalEdgeStyle;rounded=0;orthogonalLoop=1;jettySize=auto;html=1;" parent="1" source="iDiM-2aFiBiZEY-5Da5O-87" target="iDiM-2aFiBiZEY-5Da5O-88" edge="1">
          <mxGeometry relative="1" as="geometry" />
        </mxCell>
        <mxCell id="iDiM-2aFiBiZEY-5Da5O-95" value="Data Tanggapan" style="edgeLabel;html=1;align=center;verticalAlign=middle;resizable=0;points=[];" parent="iDiM-2aFiBiZEY-5Da5O-90" vertex="1" connectable="0">
          <mxGeometry x="-0.1944" y="1" relative="1" as="geometry">
            <mxPoint x="1" as="offset" />
          </mxGeometry>
        </mxCell>
        <mxCell id="iDiM-2aFiBiZEY-5Da5O-87" value="4p&lt;br&gt;memberikan tanggapan" style="strokeWidth=2;html=1;shape=mxgraph.flowchart.start_2;whiteSpace=wrap;" parent="1" vertex="1">
          <mxGeometry x="240" y="840" width="100" height="100" as="geometry" />
        </mxCell>
        <mxCell id="iDiM-2aFiBiZEY-5Da5O-92" value="" style="edgeStyle=orthogonalEdgeStyle;rounded=0;orthogonalLoop=1;jettySize=auto;html=1;" parent="1" source="iDiM-2aFiBiZEY-5Da5O-88" target="iDiM-2aFiBiZEY-5Da5O-91" edge="1">
          <mxGeometry relative="1" as="geometry" />
        </mxCell>
        <mxCell id="iDiM-2aFiBiZEY-5Da5O-96" value="Data Tanggapan" style="edgeLabel;html=1;align=center;verticalAlign=middle;resizable=0;points=[];" parent="iDiM-2aFiBiZEY-5Da5O-92" vertex="1" connectable="0">
          <mxGeometry x="-0.0769" y="-1" relative="1" as="geometry">
            <mxPoint as="offset" />
          </mxGeometry>
        </mxCell>
        <mxCell id="iDiM-2aFiBiZEY-5Da5O-88" value="data tanggapan" style="shape=partialRectangle;whiteSpace=wrap;html=1;left=0;right=0;fillColor=none;" parent="1" vertex="1">
          <mxGeometry x="20" y="730" width="120" height="40" as="geometry" />
        </mxCell>
        <mxCell id="iDiM-2aFiBiZEY-5Da5O-93" value="" style="edgeStyle=orthogonalEdgeStyle;rounded=0;orthogonalLoop=1;jettySize=auto;html=1;" parent="1" source="iDiM-2aFiBiZEY-5Da5O-91" target="iDiM-2aFiBiZEY-5Da5O-50" edge="1">
          <mxGeometry relative="1" as="geometry" />
        </mxCell>
        <mxCell id="iDiM-2aFiBiZEY-5Da5O-97" value="Hasil Tanggapan" style="edgeLabel;html=1;align=center;verticalAlign=middle;resizable=0;points=[];" parent="iDiM-2aFiBiZEY-5Da5O-93" vertex="1" connectable="0">
          <mxGeometry x="0.1667" y="1" relative="1" as="geometry">
            <mxPoint as="offset" />
          </mxGeometry>
        </mxCell>
        <mxCell id="iDiM-2aFiBiZEY-5Da5O-91" value="5p&lt;br&gt;menampilkan hasil&amp;nbsp; tanggapan" style="strokeWidth=2;html=1;shape=mxgraph.flowchart.start_2;whiteSpace=wrap;" parent="1" vertex="1">
          <mxGeometry x="30" y="500" width="100" height="100" as="geometry" />
        </mxCell>
        <mxCell id="iDiM-2aFiBiZEY-5Da5O-98" value="" style="edgeStyle=orthogonalEdgeStyle;rounded=0;orthogonalLoop=1;jettySize=auto;html=1;" parent="1" source="iDiM-2aFiBiZEY-5Da5O-99" target="iDiM-2aFiBiZEY-5Da5O-102" edge="1">
          <mxGeometry relative="1" as="geometry" />
        </mxCell>
        <mxCell id="iDiM-2aFiBiZEY-5Da5O-99" value="Pengguna" style="rounded=0;whiteSpace=wrap;html=1;" parent="1" vertex="1">
          <mxGeometry x="760" y="100" width="100" height="60" as="geometry" />
        </mxCell>
        <mxCell id="iDiM-2aFiBiZEY-5Da5O-143" value="" style="edgeStyle=orthogonalEdgeStyle;rounded=0;orthogonalLoop=1;jettySize=auto;html=1;" parent="1" source="iDiM-2aFiBiZEY-5Da5O-102" target="iDiM-2aFiBiZEY-5Da5O-142" edge="1">
          <mxGeometry relative="1" as="geometry" />
        </mxCell>
        <mxCell id="iDiM-2aFiBiZEY-5Da5O-102" value="*0&lt;br&gt;Proses Pengelolaan" style="strokeWidth=2;html=1;shape=mxgraph.flowchart.start_2;whiteSpace=wrap;" parent="1" vertex="1">
          <mxGeometry x="960" y="80" width="100" height="100" as="geometry" />
        </mxCell>
        <mxCell id="iDiM-2aFiBiZEY-5Da5O-103" value="wishlist" style="text;strokeColor=none;align=center;fillColor=none;html=1;verticalAlign=middle;whiteSpace=wrap;rounded=0;" parent="1" vertex="1">
          <mxGeometry x="880" y="100" width="60" height="30" as="geometry" />
        </mxCell>
        <mxCell id="iDiM-2aFiBiZEY-5Da5O-106" value="" style="edgeStyle=orthogonalEdgeStyle;rounded=0;orthogonalLoop=1;jettySize=auto;html=1;entryX=1;entryY=0.667;entryDx=0;entryDy=0;entryPerimeter=0;" parent="1" target="iDiM-2aFiBiZEY-5Da5O-99" edge="1">
          <mxGeometry relative="1" as="geometry">
            <mxPoint x="960" y="140" as="sourcePoint" />
            <mxPoint x="870" y="140" as="targetPoint" />
            <Array as="points" />
          </mxGeometry>
        </mxCell>
        <mxCell id="iDiM-2aFiBiZEY-5Da5O-108" value="data wishlist" style="text;strokeColor=none;align=center;fillColor=none;html=1;verticalAlign=middle;whiteSpace=wrap;rounded=0;" parent="1" vertex="1">
          <mxGeometry x="880" y="140" width="60" height="30" as="geometry" />
        </mxCell>
        <mxCell id="iDiM-2aFiBiZEY-5Da5O-109" value="" style="edgeStyle=orthogonalEdgeStyle;rounded=0;orthogonalLoop=1;jettySize=auto;html=1;" parent="1" source="iDiM-2aFiBiZEY-5Da5O-110" target="iDiM-2aFiBiZEY-5Da5O-111" edge="1">
          <mxGeometry relative="1" as="geometry" />
        </mxCell>
        <mxCell id="iDiM-2aFiBiZEY-5Da5O-124" value="Wishlist" style="edgeLabel;html=1;align=center;verticalAlign=middle;resizable=0;points=[];" parent="iDiM-2aFiBiZEY-5Da5O-109" vertex="1" connectable="0">
          <mxGeometry x="-0.185" y="1" relative="1" as="geometry">
            <mxPoint x="-1" as="offset" />
          </mxGeometry>
        </mxCell>
        <mxCell id="iDiM-2aFiBiZEY-5Da5O-110" value="Pengguna" style="rounded=0;whiteSpace=wrap;html=1;" parent="1" vertex="1">
          <mxGeometry x="770" y="280" width="100" height="60" as="geometry" />
        </mxCell>
        <mxCell id="iDiM-2aFiBiZEY-5Da5O-117" value="" style="edgeStyle=orthogonalEdgeStyle;rounded=0;orthogonalLoop=1;jettySize=auto;html=1;" parent="1" source="iDiM-2aFiBiZEY-5Da5O-111" target="iDiM-2aFiBiZEY-5Da5O-116" edge="1">
          <mxGeometry relative="1" as="geometry" />
        </mxCell>
        <mxCell id="iDiM-2aFiBiZEY-5Da5O-111" value="1p&lt;br&gt;Pengelolaan Wishlist" style="strokeWidth=2;html=1;shape=mxgraph.flowchart.start_2;whiteSpace=wrap;" parent="1" vertex="1">
          <mxGeometry x="970" y="260" width="100" height="100" as="geometry" />
        </mxCell>
        <mxCell id="iDiM-2aFiBiZEY-5Da5O-120" value="" style="edgeStyle=orthogonalEdgeStyle;rounded=0;orthogonalLoop=1;jettySize=auto;html=1;" parent="1" source="iDiM-2aFiBiZEY-5Da5O-115" target="iDiM-2aFiBiZEY-5Da5O-119" edge="1">
          <mxGeometry relative="1" as="geometry" />
        </mxCell>
        <mxCell id="iDiM-2aFiBiZEY-5Da5O-123" value="Ketersediaan" style="edgeLabel;html=1;align=center;verticalAlign=middle;resizable=0;points=[];" parent="iDiM-2aFiBiZEY-5Da5O-120" vertex="1" connectable="0">
          <mxGeometry x="-0.34" y="5" relative="1" as="geometry">
            <mxPoint x="-17" y="-5" as="offset" />
          </mxGeometry>
        </mxCell>
        <mxCell id="iDiM-2aFiBiZEY-5Da5O-115" value="2p&lt;br&gt;Memvalidasi ketersediaan" style="strokeWidth=2;html=1;shape=mxgraph.flowchart.start_2;whiteSpace=wrap;" parent="1" vertex="1">
          <mxGeometry x="970" y="500" width="100" height="100" as="geometry" />
        </mxCell>
        <mxCell id="iDiM-2aFiBiZEY-5Da5O-151" value="" style="edgeStyle=orthogonalEdgeStyle;rounded=0;orthogonalLoop=1;jettySize=auto;html=1;" parent="1" source="iDiM-2aFiBiZEY-5Da5O-116" target="iDiM-2aFiBiZEY-5Da5O-150" edge="1">
          <mxGeometry relative="1" as="geometry" />
        </mxCell>
        <mxCell id="iDiM-2aFiBiZEY-5Da5O-116" value="data wishlist" style="shape=partialRectangle;whiteSpace=wrap;html=1;left=0;right=0;fillColor=none;" parent="1" vertex="1">
          <mxGeometry x="1095" y="380" width="170" height="30" as="geometry" />
        </mxCell>
        <mxCell id="iDiM-2aFiBiZEY-5Da5O-121" value="" style="edgeStyle=orthogonalEdgeStyle;rounded=0;orthogonalLoop=1;jettySize=auto;html=1;" parent="1" source="iDiM-2aFiBiZEY-5Da5O-119" target="iDiM-2aFiBiZEY-5Da5O-110" edge="1">
          <mxGeometry relative="1" as="geometry" />
        </mxCell>
        <mxCell id="iDiM-2aFiBiZEY-5Da5O-122" value="wishlist" style="edgeLabel;html=1;align=center;verticalAlign=middle;resizable=0;points=[];" parent="iDiM-2aFiBiZEY-5Da5O-121" vertex="1" connectable="0">
          <mxGeometry x="-0.0062" y="-1" relative="1" as="geometry">
            <mxPoint as="offset" />
          </mxGeometry>
        </mxCell>
        <mxCell id="iDiM-2aFiBiZEY-5Da5O-119" value="3p&lt;br&gt;Menampilkan Wishlist" style="strokeWidth=2;html=1;shape=mxgraph.flowchart.start_2;whiteSpace=wrap;" parent="1" vertex="1">
          <mxGeometry x="770" y="500" width="100" height="100" as="geometry" />
        </mxCell>
        <mxCell id="iDiM-2aFiBiZEY-5Da5O-127" value="" style="edgeStyle=orthogonalEdgeStyle;rounded=0;orthogonalLoop=1;jettySize=auto;html=1;" parent="1" source="iDiM-2aFiBiZEY-5Da5O-125" target="iDiM-2aFiBiZEY-5Da5O-126" edge="1">
          <mxGeometry relative="1" as="geometry" />
        </mxCell>
        <mxCell id="iDiM-2aFiBiZEY-5Da5O-130" value="Wishlist" style="edgeLabel;html=1;align=center;verticalAlign=middle;resizable=0;points=[];" parent="iDiM-2aFiBiZEY-5Da5O-127" vertex="1" connectable="0">
          <mxGeometry x="-0.1864" y="1" relative="1" as="geometry">
            <mxPoint as="offset" />
          </mxGeometry>
        </mxCell>
        <mxCell id="iDiM-2aFiBiZEY-5Da5O-125" value="1.1p&lt;br&gt;Menambahkan /menghapus daftar" style="strokeWidth=2;html=1;shape=mxgraph.flowchart.start_2;whiteSpace=wrap;" parent="1" vertex="1">
          <mxGeometry x="790" y="750" width="100" height="100" as="geometry" />
        </mxCell>
        <mxCell id="iDiM-2aFiBiZEY-5Da5O-132" value="" style="edgeStyle=orthogonalEdgeStyle;rounded=0;orthogonalLoop=1;jettySize=auto;html=1;" parent="1" source="iDiM-2aFiBiZEY-5Da5O-126" target="iDiM-2aFiBiZEY-5Da5O-131" edge="1">
          <mxGeometry relative="1" as="geometry" />
        </mxCell>
        <mxCell id="iDiM-2aFiBiZEY-5Da5O-126" value="2.1p&lt;br&gt;melaksanakan perintah tambah/hapus" style="strokeWidth=2;html=1;shape=mxgraph.flowchart.start_2;whiteSpace=wrap;" parent="1" vertex="1">
          <mxGeometry x="1000" y="750" width="100" height="100" as="geometry" />
        </mxCell>
        <mxCell id="iDiM-2aFiBiZEY-5Da5O-129" value="" style="endArrow=classic;html=1;rounded=0;entryX=0.26;entryY=0.067;entryDx=0;entryDy=0;entryPerimeter=0;" parent="1" target="iDiM-2aFiBiZEY-5Da5O-125" edge="1">
          <mxGeometry width="50" height="50" relative="1" as="geometry">
            <mxPoint x="760" y="660" as="sourcePoint" />
            <mxPoint x="930" y="450" as="targetPoint" />
          </mxGeometry>
        </mxCell>
        <mxCell id="iDiM-2aFiBiZEY-5Da5O-159" value="" style="edgeStyle=orthogonalEdgeStyle;rounded=0;orthogonalLoop=1;jettySize=auto;html=1;" parent="1" source="iDiM-2aFiBiZEY-5Da5O-131" target="iDiM-2aFiBiZEY-5Da5O-156" edge="1">
          <mxGeometry relative="1" as="geometry" />
        </mxCell>
        <mxCell id="iDiM-2aFiBiZEY-5Da5O-161" value="Data Wishlist" style="edgeLabel;html=1;align=center;verticalAlign=middle;resizable=0;points=[];" parent="iDiM-2aFiBiZEY-5Da5O-159" vertex="1" connectable="0">
          <mxGeometry x="-0.1871" y="-1" relative="1" as="geometry">
            <mxPoint as="offset" />
          </mxGeometry>
        </mxCell>
        <mxCell id="iDiM-2aFiBiZEY-5Da5O-131" value="data wishlist" style="shape=partialRectangle;whiteSpace=wrap;html=1;left=0;right=0;fillColor=none;" parent="1" vertex="1">
          <mxGeometry x="1160" y="785" width="170" height="30" as="geometry" />
        </mxCell>
        <mxCell id="iDiM-2aFiBiZEY-5Da5O-137" value="" style="edgeStyle=orthogonalEdgeStyle;rounded=0;orthogonalLoop=1;jettySize=auto;html=1;" parent="1" source="iDiM-2aFiBiZEY-5Da5O-133" target="iDiM-2aFiBiZEY-5Da5O-136" edge="1">
          <mxGeometry relative="1" as="geometry" />
        </mxCell>
        <mxCell id="iDiM-2aFiBiZEY-5Da5O-167" value="" style="edgeStyle=orthogonalEdgeStyle;rounded=0;orthogonalLoop=1;jettySize=auto;html=1;" parent="1" source="iDiM-2aFiBiZEY-5Da5O-133" target="iDiM-2aFiBiZEY-5Da5O-164" edge="1">
          <mxGeometry relative="1" as="geometry" />
        </mxCell>
        <mxCell id="iDiM-2aFiBiZEY-5Da5O-133" value="1.2p&lt;br&gt;Mengecek ketersediaan tiket" style="strokeWidth=2;html=1;shape=mxgraph.flowchart.start_2;whiteSpace=wrap;" parent="1" vertex="1">
          <mxGeometry x="1195" y="880" width="100" height="100" as="geometry" />
        </mxCell>
        <mxCell id="iDiM-2aFiBiZEY-5Da5O-135" value="2.2p&lt;br&gt;Mengirimkan notifikasi" style="strokeWidth=2;html=1;shape=mxgraph.flowchart.start_2;whiteSpace=wrap;" parent="1" vertex="1">
          <mxGeometry x="1195" y="1120" width="100" height="100" as="geometry" />
        </mxCell>
        <mxCell id="iDiM-2aFiBiZEY-5Da5O-138" value="" style="edgeStyle=orthogonalEdgeStyle;rounded=0;orthogonalLoop=1;jettySize=auto;html=1;" parent="1" source="iDiM-2aFiBiZEY-5Da5O-136" target="iDiM-2aFiBiZEY-5Da5O-135" edge="1">
          <mxGeometry relative="1" as="geometry" />
        </mxCell>
        <mxCell id="iDiM-2aFiBiZEY-5Da5O-165" value="Tiket Tersedia" style="edgeLabel;html=1;align=center;verticalAlign=middle;resizable=0;points=[];" parent="iDiM-2aFiBiZEY-5Da5O-138" vertex="1" connectable="0">
          <mxGeometry x="-0.3553" y="-2" relative="1" as="geometry">
            <mxPoint as="offset" />
          </mxGeometry>
        </mxCell>
        <mxCell id="iDiM-2aFiBiZEY-5Da5O-136" value="data ketersediaan tiket" style="shape=partialRectangle;whiteSpace=wrap;html=1;left=0;right=0;fillColor=none;" parent="1" vertex="1">
          <mxGeometry x="1160" y="1040" width="170" height="30" as="geometry" />
        </mxCell>
        <mxCell id="iDiM-2aFiBiZEY-5Da5O-139" value="" style="endArrow=classic;html=1;rounded=0;exitX=-0.01;exitY=0.607;exitDx=0;exitDy=0;exitPerimeter=0;" parent="1" source="iDiM-2aFiBiZEY-5Da5O-135" edge="1">
          <mxGeometry width="50" height="50" relative="1" as="geometry">
            <mxPoint x="1110" y="1120" as="sourcePoint" />
            <mxPoint x="1090" y="1181" as="targetPoint" />
          </mxGeometry>
        </mxCell>
        <mxCell id="iDiM-2aFiBiZEY-5Da5O-142" value="Sistem" style="rounded=0;whiteSpace=wrap;html=1;" parent="1" vertex="1">
          <mxGeometry x="1130" y="100" width="100" height="60" as="geometry" />
        </mxCell>
        <mxCell id="iDiM-2aFiBiZEY-5Da5O-144" value="" style="edgeStyle=orthogonalEdgeStyle;rounded=0;orthogonalLoop=1;jettySize=auto;html=1;exitX=0;exitY=0.75;exitDx=0;exitDy=0;entryX=0.995;entryY=0.644;entryDx=0;entryDy=0;entryPerimeter=0;" parent="1" source="iDiM-2aFiBiZEY-5Da5O-142" target="iDiM-2aFiBiZEY-5Da5O-102" edge="1">
          <mxGeometry relative="1" as="geometry">
            <mxPoint x="970" y="150" as="sourcePoint" />
            <mxPoint x="1060" y="145" as="targetPoint" />
            <Array as="points" />
          </mxGeometry>
        </mxCell>
        <mxCell id="iDiM-2aFiBiZEY-5Da5O-145" value="wishlist" style="text;strokeColor=none;align=center;fillColor=none;html=1;verticalAlign=middle;whiteSpace=wrap;rounded=0;" parent="1" vertex="1">
          <mxGeometry x="1060" y="100" width="60" height="30" as="geometry" />
        </mxCell>
        <mxCell id="iDiM-2aFiBiZEY-5Da5O-148" value="data wishlist" style="text;strokeColor=none;align=center;fillColor=none;html=1;verticalAlign=middle;whiteSpace=wrap;rounded=0;" parent="1" vertex="1">
          <mxGeometry x="1060" y="150" width="60" height="30" as="geometry" />
        </mxCell>
        <mxCell id="iDiM-2aFiBiZEY-5Da5O-153" value="" style="edgeStyle=orthogonalEdgeStyle;rounded=0;orthogonalLoop=1;jettySize=auto;html=1;" parent="1" source="iDiM-2aFiBiZEY-5Da5O-150" target="iDiM-2aFiBiZEY-5Da5O-115" edge="1">
          <mxGeometry relative="1" as="geometry">
            <Array as="points">
              <mxPoint x="1180" y="550" />
            </Array>
          </mxGeometry>
        </mxCell>
        <mxCell id="iDiM-2aFiBiZEY-5Da5O-154" value="Data Wishlist" style="edgeLabel;html=1;align=center;verticalAlign=middle;resizable=0;points=[];" parent="iDiM-2aFiBiZEY-5Da5O-153" vertex="1" connectable="0">
          <mxGeometry x="-0.1197" y="2" relative="1" as="geometry">
            <mxPoint as="offset" />
          </mxGeometry>
        </mxCell>
        <mxCell id="iDiM-2aFiBiZEY-5Da5O-150" value="Sistem" style="rounded=0;whiteSpace=wrap;html=1;" parent="1" vertex="1">
          <mxGeometry x="1130" y="430" width="100" height="60" as="geometry" />
        </mxCell>
        <mxCell id="iDiM-2aFiBiZEY-5Da5O-160" value="" style="edgeStyle=orthogonalEdgeStyle;rounded=0;orthogonalLoop=1;jettySize=auto;html=1;" parent="1" source="iDiM-2aFiBiZEY-5Da5O-156" target="iDiM-2aFiBiZEY-5Da5O-133" edge="1">
          <mxGeometry relative="1" as="geometry" />
        </mxCell>
        <mxCell id="iDiM-2aFiBiZEY-5Da5O-162" value="Data Wishlist" style="edgeLabel;html=1;align=center;verticalAlign=middle;resizable=0;points=[];" parent="iDiM-2aFiBiZEY-5Da5O-160" vertex="1" connectable="0">
          <mxGeometry x="-0.0754" y="2" relative="1" as="geometry">
            <mxPoint as="offset" />
          </mxGeometry>
        </mxCell>
        <mxCell id="iDiM-2aFiBiZEY-5Da5O-156" value="Sistem" style="rounded=0;whiteSpace=wrap;html=1;" parent="1" vertex="1">
          <mxGeometry x="1380" y="900" width="100" height="60" as="geometry" />
        </mxCell>
        <mxCell id="iDiM-2aFiBiZEY-5Da5O-168" value="" style="edgeStyle=orthogonalEdgeStyle;rounded=0;orthogonalLoop=1;jettySize=auto;html=1;" parent="1" source="iDiM-2aFiBiZEY-5Da5O-164" target="iDiM-2aFiBiZEY-5Da5O-166" edge="1">
          <mxGeometry relative="1" as="geometry" />
        </mxCell>
        <mxCell id="iDiM-2aFiBiZEY-5Da5O-169" value="Tiket belum tersedia" style="edgeLabel;html=1;align=center;verticalAlign=middle;resizable=0;points=[];" parent="iDiM-2aFiBiZEY-5Da5O-168" vertex="1" connectable="0">
          <mxGeometry x="-0.2874" y="3" relative="1" as="geometry">
            <mxPoint as="offset" />
          </mxGeometry>
        </mxCell>
        <mxCell id="iDiM-2aFiBiZEY-5Da5O-164" value="data ketersediaan tiket" style="shape=partialRectangle;whiteSpace=wrap;html=1;left=0;right=0;fillColor=none;" parent="1" vertex="1">
          <mxGeometry x="950" y="1030" width="170" height="30" as="geometry" />
        </mxCell>
        <mxCell id="iDiM-2aFiBiZEY-5Da5O-166" value="3.2p&lt;br&gt;Menampilkan wishlist" style="strokeWidth=2;html=1;shape=mxgraph.flowchart.start_2;whiteSpace=wrap;" parent="1" vertex="1">
          <mxGeometry x="985" y="1130" width="100" height="100" as="geometry" />
        </mxCell>
        <mxCell id="nglebKleWcQ_7xgtgqEt-3" value="" style="endArrow=none;dashed=1;html=1;dashPattern=1 3;strokeWidth=2;rounded=0;strokeColor=#FF0000;" edge="1" parent="1">
          <mxGeometry width="50" height="50" relative="1" as="geometry">
            <mxPoint x="590" y="370" as="sourcePoint" />
            <mxPoint x="150" y="230" as="targetPoint" />
            <Array as="points">
              <mxPoint x="170" y="370" />
            </Array>
          </mxGeometry>
        </mxCell>
        <mxCell id="nglebKleWcQ_7xgtgqEt-4" value="" style="endArrow=none;dashed=1;html=1;dashPattern=1 3;strokeWidth=2;rounded=0;strokeColor=#00FF00;" edge="1" parent="1">
          <mxGeometry width="50" height="50" relative="1" as="geometry">
            <mxPoint x="130" y="360" as="sourcePoint" />
            <mxPoint x="30" y="620" as="targetPoint" />
            <Array as="points">
              <mxPoint x="150" y="620" />
            </Array>
          </mxGeometry>
        </mxCell>
        <mxCell id="nglebKleWcQ_7xgtgqEt-5" value="" style="endArrow=none;dashed=1;html=1;dashPattern=1 3;strokeWidth=2;rounded=0;strokeColor=#0000FF;" edge="1" parent="1">
          <mxGeometry width="50" height="50" relative="1" as="geometry">
            <mxPoint x="640" y="940" as="sourcePoint" />
            <mxPoint x="-60" y="920" as="targetPoint" />
            <Array as="points">
              <mxPoint x="630" y="650" />
              <mxPoint x="430" y="380" />
              <mxPoint x="190" y="380" />
              <mxPoint x="180" y="660" />
              <mxPoint y="660" />
            </Array>
          </mxGeometry>
        </mxCell>
        <mxCell id="nglebKleWcQ_7xgtgqEt-6" value="" style="endArrow=none;dashed=1;html=1;dashPattern=1 3;strokeWidth=2;rounded=0;strokeColor=#FF0000;" edge="1" parent="1">
          <mxGeometry width="50" height="50" relative="1" as="geometry">
            <mxPoint x="80" y="980" as="sourcePoint" />
            <mxPoint x="140" y="980" as="targetPoint" />
          </mxGeometry>
        </mxCell>
        <mxCell id="nglebKleWcQ_7xgtgqEt-7" value="" style="endArrow=none;dashed=1;html=1;dashPattern=1 3;strokeWidth=2;rounded=0;strokeColor=#0000FF;" edge="1" parent="1">
          <mxGeometry width="50" height="50" relative="1" as="geometry">
            <mxPoint x="80" y="1020" as="sourcePoint" />
            <mxPoint x="140" y="1020" as="targetPoint" />
          </mxGeometry>
        </mxCell>
        <mxCell id="nglebKleWcQ_7xgtgqEt-8" value="" style="endArrow=none;dashed=1;html=1;dashPattern=1 3;strokeWidth=2;rounded=0;strokeColor=#00FF00;" edge="1" parent="1">
          <mxGeometry width="50" height="50" relative="1" as="geometry">
            <mxPoint x="80" y="1060" as="sourcePoint" />
            <mxPoint x="140" y="1060" as="targetPoint" />
          </mxGeometry>
        </mxCell>
        <mxCell id="nglebKleWcQ_7xgtgqEt-10" value="Incoming Flow" style="text;html=1;strokeColor=none;fillColor=none;align=center;verticalAlign=middle;whiteSpace=wrap;rounded=0;" vertex="1" parent="1">
          <mxGeometry x="150" y="960" width="110" height="30" as="geometry" />
        </mxCell>
        <mxCell id="nglebKleWcQ_7xgtgqEt-11" value="Transform Center" style="text;html=1;strokeColor=none;fillColor=none;align=center;verticalAlign=middle;whiteSpace=wrap;rounded=0;" vertex="1" parent="1">
          <mxGeometry x="160" y="1010" width="110" height="30" as="geometry" />
        </mxCell>
        <mxCell id="nglebKleWcQ_7xgtgqEt-12" value="Outgoing Flow" style="text;html=1;strokeColor=none;fillColor=none;align=center;verticalAlign=middle;whiteSpace=wrap;rounded=0;" vertex="1" parent="1">
          <mxGeometry x="150" y="1040" width="110" height="30" as="geometry" />
        </mxCell>
        <mxCell id="nglebKleWcQ_7xgtgqEt-22" value="" style="endArrow=none;dashed=1;html=1;dashPattern=1 3;strokeWidth=2;rounded=0;strokeColor=#FF0000;" edge="1" parent="1">
          <mxGeometry width="50" height="50" relative="1" as="geometry">
            <mxPoint x="1320" y="380" as="sourcePoint" />
            <mxPoint x="1380" y="380" as="targetPoint" />
          </mxGeometry>
        </mxCell>
        <mxCell id="nglebKleWcQ_7xgtgqEt-23" value="" style="endArrow=none;dashed=1;html=1;dashPattern=1 3;strokeWidth=2;rounded=0;strokeColor=#0000FF;" edge="1" parent="1">
          <mxGeometry width="50" height="50" relative="1" as="geometry">
            <mxPoint x="1320" y="420" as="sourcePoint" />
            <mxPoint x="1380" y="420" as="targetPoint" />
          </mxGeometry>
        </mxCell>
        <mxCell id="nglebKleWcQ_7xgtgqEt-24" value="" style="endArrow=none;dashed=1;html=1;dashPattern=1 3;strokeWidth=2;rounded=0;strokeColor=#00FF00;" edge="1" parent="1">
          <mxGeometry width="50" height="50" relative="1" as="geometry">
            <mxPoint x="1320" y="460" as="sourcePoint" />
            <mxPoint x="1380" y="460" as="targetPoint" />
          </mxGeometry>
        </mxCell>
        <mxCell id="nglebKleWcQ_7xgtgqEt-25" value="Incoming Flow" style="text;html=1;strokeColor=none;fillColor=none;align=center;verticalAlign=middle;whiteSpace=wrap;rounded=0;" vertex="1" parent="1">
          <mxGeometry x="1390" y="360" width="110" height="30" as="geometry" />
        </mxCell>
        <mxCell id="nglebKleWcQ_7xgtgqEt-26" value="Transform Center" style="text;html=1;strokeColor=none;fillColor=none;align=center;verticalAlign=middle;whiteSpace=wrap;rounded=0;" vertex="1" parent="1">
          <mxGeometry x="1400" y="410" width="110" height="30" as="geometry" />
        </mxCell>
        <mxCell id="nglebKleWcQ_7xgtgqEt-27" value="Outgoing Flow" style="text;html=1;strokeColor=none;fillColor=none;align=center;verticalAlign=middle;whiteSpace=wrap;rounded=0;" vertex="1" parent="1">
          <mxGeometry x="1390" y="440" width="110" height="30" as="geometry" />
        </mxCell>
        <mxCell id="nglebKleWcQ_7xgtgqEt-28" value="" style="endArrow=none;dashed=1;html=1;dashPattern=1 3;strokeWidth=2;rounded=0;strokeColor=#FF0000;" edge="1" parent="1">
          <mxGeometry width="50" height="50" relative="1" as="geometry">
            <mxPoint x="880" y="240" as="sourcePoint" />
            <mxPoint x="1290" y="280" as="targetPoint" />
            <Array as="points">
              <mxPoint x="880" y="420" />
              <mxPoint x="1290" y="420" />
            </Array>
          </mxGeometry>
        </mxCell>
        <mxCell id="nglebKleWcQ_7xgtgqEt-29" value="" style="endArrow=none;dashed=1;html=1;dashPattern=1 3;strokeWidth=2;rounded=0;strokeColor=#0000FF;" edge="1" parent="1">
          <mxGeometry width="50" height="50" relative="1" as="geometry">
            <mxPoint x="1350" y="620" as="sourcePoint" />
            <mxPoint x="900" y="610" as="targetPoint" />
            <Array as="points">
              <mxPoint x="1290" y="430" />
              <mxPoint x="970" y="430" />
              <mxPoint x="900" y="610" />
            </Array>
          </mxGeometry>
        </mxCell>
        <mxCell id="nglebKleWcQ_7xgtgqEt-30" value="" style="endArrow=none;dashed=1;html=1;dashPattern=1 3;strokeWidth=2;rounded=0;strokeColor=#00FF00;" edge="1" parent="1">
          <mxGeometry width="50" height="50" relative="1" as="geometry">
            <mxPoint x="720" y="450" as="sourcePoint" />
            <mxPoint x="860" y="370" as="targetPoint" />
            <Array as="points">
              <mxPoint x="740" y="610" />
              <mxPoint x="880" y="610" />
              <mxPoint x="910" y="520" />
            </Array>
          </mxGeometry>
        </mxCell>
      </root>
    </mxGraphModel>
  </diagram>
</mxfile>
